﻿ELECCIONES AUTONÓMICAS 1999;
SIGLAS;CANDIDATURAS
ACV;Alternativa Comunidad Valenciana
BNV-EV;Bloc Nacionalista Valencià-Els Verds
CL;Centro Liberal
ENV;Esquerra Nacionalista Valenciana
EUPV;Esquerra Unida del País Valencià
FE-JONS;Falange Española de las JONS
II;Iniciativa Independiente
IRF-PRF;Izquierda Republicana Federal-Partido Republicano Federal
LAE;Liga Autónoma Española
LVE;Los Verdes Ecologistas Pacifistas
OIV;Organización Independiente Valenciana
PH;Partido Humanista
PP;Partido Popular
PSOE-P;Coalición Electoral PSOE-Progresistas
UC-CDS;Unión Centrista-Centro Democrático y Social
UV;Unió Valenciana
